<svg xmlns="http://www.w3.org/2000/svg" viewBox="0 0 200 125">
<path fill="#202020" d="M170.943 64.957l5.877-5.912a.995.995 0 0 0-.724-1.664.985.985 0 0 0-.696.294l-5.828 5.883-5.933-5.967a.971.971 0 0 0-.691-.292.993.993 0 0 0-.904.611.973.973 0 0 0 .22 1.07l5.92 5.976-5.833 5.869c-.29.289-.374.7-.222 1.075.152.365.515.61.904.61a.975.975 0 0 0 .69-.294l5.849-5.883 5.915 5.472a.97.97 0 0 0 .693.295c.389 0 .743-.236.903-.598.158-.362.085-.777-.201-1.089l-5.94-5.457"/>
<path fill="#202020" d="M162.944 57.752a.537.537 0 0 0-.486.333.518.518 0 0 0 .121.575l6.239 6.297-6.15 6.187a.525.525 0 0 0-.123.586c.133.318.597.426.854.167l6.156-6.193 6.236 5.769a.528.528 0 0 0 .873-.154c.087-.198.043-.423-.12-.6l-6.258-5.748 6.21-6.246a.526.526 0 0 0 .083-.567.54.54 0 0 0-.863-.162l-6.148 6.205-6.254-6.29a.521.521 0 0 0-.37-.16zm.085 15.211c-.568 0-1.1-.357-1.322-.888-.224-.551-.1-1.15.32-1.57l5.515-5.549-5.604-5.656a1.417 1.417 0 0 1-.317-1.56 1.453 1.453 0 0 1 1.323-.894c.38 0 .74.151 1.013.426l5.61 5.644 5.508-5.56a1.435 1.435 0 0 1 1.017-.428 1.448 1.448 0 0 1 1.06 2.421l-5.56 5.593 5.593 5.138c.433.47.54 1.074.309 1.603-.233.529-.75.87-1.318.87-.38 0-.74-.153-1.014-.43l-5.58-5.16-5.54 5.573a1.421 1.421 0 0 1-1.013.427"/>
<g fill="#676767">
<path d="M187.352 61.004a3.826 3.826 0 1 0 7.649-.186 3.825 3.825 0 1 0-7.649.186M171.717 42.62a3.826 3.826 0 1 0 7.65-.184 3.826 3.826 0 0 0-7.65.183M162.464 39.916a2.964 2.964 0 0 0 5.925-.144 2.964 2.964 0 0 0-5.925.144M187.293 70.748a2.712 2.712 0 0 0 2.778 2.646 2.712 2.712 0 1 0-.133-5.423 2.712 2.712 0 0 0-2.645 2.777M181.31 74.557c.02.882.755 1.58 1.637 1.559a1.598 1.598 0 0 0 1.56-1.638 1.599 1.599 0 1 0-3.198.08M157.305 44.38c.023.973.83 1.742 1.802 1.718a1.761 1.761 0 1 0-1.802-1.717M157.101 51.31a1.375 1.375 0 0 0 1.406 1.345 1.376 1.376 0 1 0-1.406-1.344M180.359 50.52a4.788 4.788 0 0 0 4.9 4.668 4.784 4.784 0 1 0-4.9-4.668"/>
</g>
<path fill="#575757" d="M190.002 73.395a2.712 2.712 0 0 1-2.71-2.647v-.061a2.712 2.712 0 0 1 5.425-.07v.07a2.712 2.712 0 0 1-2.715 2.708"/>
<path fill="#434343" d="M182.909 76.116c-.864 0-1.577-.69-1.596-1.559v-.047a1.599 1.599 0 0 1 1.559-1.593h.037a1.603 1.603 0 0 1 1.602 1.602 1.598 1.598 0 0 1-1.602 1.597"/>
<path fill="#575757" d="M159.062 46.099c-.953 0-1.735-.76-1.758-1.718v-.046a1.76 1.76 0 0 1 3.52-.038v.046a1.761 1.761 0 0 1-1.762 1.756"/>
<path fill="#434343" d="M158.474 52.655a1.374 1.374 0 0 1-1.375-1.344v-.036a1.373 1.373 0 0 1 1.378-1.372c.745 0 1.355.595 1.374 1.342v.026c0 .747-.592 1.363-1.346 1.384h-.031"/>
<g fill="#202020">
<path d="M17.073 70.512c-1.759 0-3.48.005-5.2.01l-.46.001c-1.324.004-2.652.007-3.999.008V59.302h9.64c.767 0 1.55.792 1.55 1.57v8.13c0 .763-.758 1.51-1.531 1.51zm-.02-13.172H6.696c-.697 0-1.243.555-1.243 1.265v12.623c0 .71.546 1.264 1.243 1.264h10.377c1.839 0 3.511-1.664 3.511-3.49v-8.15c0-1.805-1.716-3.512-3.53-3.512"/>
<path d="M7.867 59.755v10.323l3.545-.008.46-.001c1.72-.005 3.442-.01 5.2-.01.525 0 1.079-.543 1.079-1.058v-8.13c0-.531-.575-1.116-1.098-1.116zm-.906 11.23V58.849h10.092c1.011 0 2.004 1.002 2.004 2.023v8.13c0 1.009-.964 1.963-1.984 1.963-1.758 0-3.479.004-5.199.01l-.46.001c-1.325.004-2.653.007-4 .008zm-.265-13.192c-.45 0-.79.35-.79.812v12.623c0 .462.34.811.79.811h10.377c1.6 0 3.058-1.448 3.058-3.038v-8.15c0-1.543-1.524-3.058-3.078-3.058zm10.377 15.152H6.696C5.745 72.945 5 72.19 5 71.228V58.605c0-.963.745-1.718 1.696-1.718h10.357c2.048 0 3.984 1.927 3.984 3.965v8.15c0 2.064-1.89 3.943-3.964 3.943M42.285 60.871v3.583H30.977v-3.583c0-.968.936-1.569 1.805-1.569h7.698c.868 0 1.805.601 1.805 1.57zm-1.784-3.531h-7.738c-2.067 0-3.745 1.586-3.745 3.531v10.73a.96.96 0 0 0 .97.97c.544 0 .99-.435.99-.97v-5.243h11.307V71.6c0 .536.444.971.99.971a.973.973 0 0 0 .972-.97V60.87c0-2.18-1.946-3.531-3.746-3.531"/>
<path d="M31.43 64.002h10.402v-3.13c0-.69-.701-1.117-1.352-1.117h-7.698c-.65 0-1.352.427-1.352 1.117zm11.308.906H30.524v-4.036c0-1.25 1.172-2.023 2.258-2.023h7.699c1.086 0 2.257.773 2.257 2.023zm-12.214.997h12.214V71.6c0 .286.24.518.537.518a.519.519 0 0 0 .519-.518V60.871c0-1.901-1.71-3.078-3.293-3.078h-7.738c-1.815 0-3.293 1.38-3.293 3.078v10.73c0 .295.223.517.517.517a.528.528 0 0 0 .537-.518zm12.751 7.12a1.435 1.435 0 0 1-1.443-1.425v-4.79H31.43v4.79c0 .786-.647 1.424-1.443 1.424a1.408 1.408 0 0 1-1.422-1.424V60.871c0-2.196 1.883-3.984 4.198-3.984h7.738c2.02 0 4.199 1.523 4.199 3.984v10.73c0 .785-.64 1.423-1.425 1.423M63.414 57.34h-11.14a.972.972 0 0 0-.984.98c0 .552.433.982.984.982h4.599c0 1.536-.005 3.659-.01 5.781l-.002 1.572c-.004 1.927-.007 3.729-.007 4.945 0 .544.435.971.99.971s.99-.427.99-.97V59.301h4.58c.551 0 .984-.43.984-.982a.973.973 0 0 0-.984-.98"/>
<path d="M52.272 57.793a.518.518 0 0 0-.531.527c0 .302.228.529.53.529h5.053v.453c-.001 1.227-.004 2.828-.008 4.503l-.005 2.85c-.004 1.927-.006 3.729-.006 4.945 0 .295.23.518.537.518s.537-.223.537-.518V58.849h5.032a.519.519 0 0 0 .532-.529c0-.3-.229-.527-.532-.527zm5.57 15.23c-.81 0-1.443-.625-1.443-1.423 0-1.217.003-3.02.007-4.947l.005-2.85.006-4.048h-4.145a1.42 1.42 0 0 1-1.437-1.435 1.42 1.42 0 0 1 1.437-1.433H63.41c.806 0 1.438.63 1.438 1.433a1.42 1.42 0 0 1-1.438 1.435h-4.126V71.6c0 .798-.634 1.423-1.443 1.423M85.159 60.871v3.583H73.852v-3.583c0-.968.936-1.569 1.803-1.569h7.7c.867 0 1.804.601 1.804 1.57zm-1.784-3.531h-7.739c-2.065 0-3.745 1.586-3.745 3.531v10.73a.96.96 0 0 0 .97.97.982.982 0 0 0 .99-.97v-5.243H85.16V71.6c0 .536.444.971.99.971a.972.972 0 0 0 .97-.97V60.87c0-2.18-1.943-3.531-3.744-3.531"/>
<path d="M74.307 64.002h10.4v-3.13c0-.69-.701-1.117-1.351-1.117h-7.7c-.649 0-1.35.427-1.35 1.117zm11.306.906H73.401v-4.036c0-1.25 1.171-2.023 2.256-2.023h7.699c1.086 0 2.257.773 2.257 2.023zm-12.212.997h12.212V71.6c0 .286.241.518.538.518a.519.519 0 0 0 .518-.518V60.871c0-1.901-1.71-3.078-3.292-3.078h-7.739c-1.816 0-3.292 1.38-3.292 3.078v10.73c0 .295.222.517.517.517a.529.529 0 0 0 .538-.518zm12.75 7.12a1.435 1.435 0 0 1-1.443-1.425v-4.79H74.307v4.79c0 .786-.648 1.424-1.444 1.424A1.408 1.408 0 0 1 71.44 71.6V60.871c0-2.196 1.883-3.984 4.198-3.984h7.739c2.019 0 4.198 1.523 4.198 3.984v10.73c0 .785-.64 1.423-1.424 1.423M107.47 63.967h-8.481c-1.048 0-1.525-1.227-1.525-2.363 0-1.109.464-2.302 1.486-2.302h9.34c.553 0 .986-.43.986-.982a.973.973 0 0 0-.985-.98H98.95c-2.263 0-3.448 2.153-3.448 4.28 0 2.074 1.098 4.307 3.507 4.307h8.359c1.068.008 1.552 1.229 1.547 2.359-.003 1.081-.47 2.245-1.484 2.245H96.684a.965.965 0 0 0-.97.98c0 .55.425.98.97.98h10.727c2.39 0 3.477-2.216 3.477-4.277 0-2.11-1.174-4.247-3.418-4.247"/>
<path d="M96.686 70.984a.511.511 0 0 0-.518.528c0 .3.222.527.518.527h10.727c2.077 0 3.024-1.982 3.024-3.824 0-1.886-1.019-3.795-2.965-3.795H98.99c-1.36 0-1.978-1.46-1.978-2.816 0-1.327.607-2.755 1.939-2.755h9.34a.519.519 0 0 0 .533-.529c0-.3-.229-.527-.532-.527h-9.341c-1.967 0-2.996 1.925-2.996 3.827 0 1.856.957 3.854 3.054 3.854h8.36c1.382.01 2.005 1.466 2 2.814-.004 1.298-.612 2.696-1.937 2.696zm10.727 1.96H96.686c-.799 0-1.424-.628-1.424-1.432s.625-1.434 1.424-1.434h10.747c.753 0 1.029-1.072 1.03-1.793.004-.763-.286-1.899-1.097-1.905H99.01c-2.72 0-3.96-2.467-3.96-4.76 0-2.352 1.34-4.733 3.902-4.733h9.34c.807 0 1.439.63 1.439 1.433 0 .805-.632 1.435-1.438 1.435h-9.341c-.758 0-1.034 1.106-1.034 1.849 0 .768.286 1.91 1.073 1.91h8.48c2.542 0 3.872 2.365 3.872 4.7 0 2.28-1.23 4.73-3.93 4.73M130.034 57.34H117.92a.974.974 0 0 0-.987.98c0 .552.433.982.987.982h5.576c-.002 1.536-.008 3.659-.01 5.781-.006 2.485-.01 4.974-.01 6.517a.97.97 0 0 0 .99.971.97.97 0 0 0 .99-.97V59.301h4.58c.552 0 .985-.43.985-.982a.973.973 0 0 0-.986-.98"/>
<path d="M117.919 57.793a.52.52 0 0 0-.534.527c0 .302.23.529.534.529h6.03l-.011 6.234c-.006 2.485-.01 4.975-.01 6.517 0 .295.23.518.537.518a.516.516 0 0 0 .537-.518V58.849h5.032a.519.519 0 0 0 .533-.529c0-.3-.23-.527-.533-.527zm6.546 15.23c-.81 0-1.443-.625-1.443-1.423 0-1.543.004-4.033.01-6.518l.01-5.327h-5.123c-.807 0-1.44-.63-1.44-1.435 0-.804.633-1.433 1.44-1.433h12.115c.807 0 1.439.63 1.439 1.433 0 .805-.632 1.435-1.439 1.435h-4.127V71.6c0 .798-.633 1.424-1.442 1.424M151.78 60.871v3.583h-11.307v-3.583c0-.968.936-1.569 1.803-1.569h7.7c.868 0 1.803.601 1.803 1.57zm-1.785-3.531h-7.738c-2.066 0-3.746 1.586-3.746 3.531v10.73c0 .543.427.97.971.97.546 0 .99-.435.99-.97v-5.243h11.307V71.6a.982.982 0 0 0 1.962 0V60.871c0-2.18-1.945-3.531-3.746-3.531"/>
<path d="M140.923 64.002h10.4v-3.13c0-.69-.7-1.117-1.35-1.117h-7.7c-.65 0-1.35.427-1.35 1.117zm11.307.906h-12.213v-4.036c0-1.25 1.171-2.023 2.256-2.023h7.7c1.086 0 2.257.773 2.257 2.023zm-12.213.997h12.213V71.6c0 .286.241.518.538.518a.519.519 0 0 0 .517-.518V60.871c0-1.901-1.709-3.078-3.293-3.078h-7.738c-1.815 0-3.292 1.38-3.292 3.078v10.73c0 .295.222.517.518.517a.529.529 0 0 0 .537-.518zm12.75 7.12a1.436 1.436 0 0 1-1.443-1.425v-4.79h-10.401v4.79c0 .786-.648 1.424-1.443 1.424a1.409 1.409 0 0 1-1.424-1.424V60.871c0-2.196 1.883-3.984 4.198-3.984h7.738c2.02 0 4.2 1.523 4.2 3.984v10.73c0 .785-.64 1.423-1.424 1.423"/>
</g>
</svg>
